[
  {
    "element-6066-11e4-a52e-4f735466cecf": "aa460604-341f-496d-a619-d58ad2de485b"
  },
  {
    "element-6066-11e4-a52e-4f735466cecf": "a812bec3-4b4d-4479-9763-40c20de40bb9"
  },
  {
    "element-6066-11e4-a52e-4f735466cecf": "31da792c-87a7-4235-a3d0-92a550f2828a"
  },
  {
    "element-6066-11e4-a52e-4f735466cecf": "8c89efee-f2aa-4ebc-8141-4eb27fd6fd13"
  },
  {
    "element-6066-11e4-a52e-4f735466cecf": "52361c92-2719-44dd-8438-bbdb9f7c6a4a"
  },
  {
    "element-6066-11e4-a52e-4f735466cecf": "476e46ec-f87e-4b91-9cb2-1252d6595452"
  },
  {
    "element-6066-11e4-a52e-4f735466cecf": "8b3f9d0e-6431-4528-9ff4-3b35dbf4772d"
  },
  {
    "element-6066-11e4-a52e-4f735466cecf": "a698587e-16d5-48b9-bbba-201bf5c1a72b"
  },
  {
    "element-6066-11e4-a52e-4f735466cecf": "3a497c26-8c9c-4aa7-96f4-a56ce9c7f4e9"
  },
  {
    "element-6066-11e4-a52e-4f735466cecf": "af2037a1-f021-40ef-accf-6ef4faa2f9fe"
  },
  {
    "element-6066-11e4-a52e-4f735466cecf": "ab5a84dd-5d2b-4af4-bbfe-799cb296f83b"
  },
  {
    "element-6066-11e4-a52e-4f735466cecf": "0121f709-513b-4eaa-a175-87e2f6c6d833"
  },
  {
    "element-6066-11e4-a52e-4f735466cecf": "0ecb2ba7-79c0-4cb8-be45-a5815dc17fa7"
  },
  {
    "element-6066-11e4-a52e-4f735466cecf": "fa99caa6-9ee1-40cf-9f34-a3fd4f96b797"
  },
  {
    "element-6066-11e4-a52e-4f735466cecf": "4cad1506-87b9-4c8e-adfe-cda37231479f"
  },
  {
    "element-6066-11e4-a52e-4f735466cecf": "208b2918-84db-40ee-8ec9-92381e5d8bae"
  },
  {
    "element-6066-11e4-a52e-4f735466cecf": "ad648fd1-717a-4345-9abf-f26a125967cc"
  },
  {
    "element-6066-11e4-a52e-4f735466cecf": "f6a5cb94-c1a9-4406-8806-78161ac45dac"
  },
  {
    "element-6066-11e4-a52e-4f735466cecf": "02b147e7-226e-48dd-ac0e-9f07738fcbd5"
  },
  {
    "element-6066-11e4-a52e-4f735466cecf": "ac42a1a5-b9f0-4d1e-9f15-637495cec6e2"
  },
  {
    "element-6066-11e4-a52e-4f735466cecf": "048ab3d2-ee9f-4365-88fa-c92fe8a9667e"
  },
  {
    "element-6066-11e4-a52e-4f735466cecf": "4931b88a-fbf4-4ec4-9c7e-11116d1696fe"
  },
  {
    "element-6066-11e4-a52e-4f735466cecf": "32798a2f-1430-4170-844a-ea9bb278d544"
  },
  {
    "element-6066-11e4-a52e-4f735466cecf": "40855b62-f137-4832-9cd3-eb8d69cfefa2"
  },
  {
    "element-6066-11e4-a52e-4f735466cecf": "31c97012-e970-4883-ab16-dfa416db28c8"
  },
  {
    "element-6066-11e4-a52e-4f735466cecf": "cd1ed7fb-0d6e-454a-acdb-e2bab08ecee6"
  },
  {
    "element-6066-11e4-a52e-4f735466cecf": "7c2ed4ad-28b1-4292-ad23-6fdc2cb13d26"
  },
  {
    "element-6066-11e4-a52e-4f735466cecf": "baf57a82-742c-4342-95f8-f8ea75e4bd46"
  },
  {
    "element-6066-11e4-a52e-4f735466cecf": "cca507f3-cb44-43d2-a876-8675caba7260"
  },
  {
    "element-6066-11e4-a52e-4f735466cecf": "da63df1d-0e01-4e00-b0e0-cc6562c174ab"
  }
]