{
  "error": "no such element",
  "message": "no such element: Unable to locate element: {\"method\":\"css selector\",\"selector\":\"div.toast div\"}\n  (Session info: chrome=75.0.3770.142)",
  "stacktrace": "Backtrace:\n\tOrdinal0 [0x00C57DF3+1474035]\n\tOrdinal0 [0x00BD07D1+919505]\n\tOrdinal0 [0x00B6CB43+510787]\n\tOrdinal0 [0x00B0CAAD+117421]\n\tOrdinal0 [0x00B28610+230928]\n\tOrdinal0 [0x00B1F060+192608]\n\tOrdinal0 [0x00B27404+226308]\n\tOrdinal0 [0x00B1EECB+192203]\n\tOrdinal0 [0x00B05FF6+90102]\n\tOrdinal0 [0x00B0765A+95834]\n\tOrdinal0 [0x00B07554+95572]\n\tGetHandleVerifier [0x00DB231C+1249612]\n\tGetHandleVerifier [0x00D01575+525221]\n\tGetHandleVerifier [0x00D01310+524608]\n\tOrdinal0 [0x00C65D28+1531176]\n\tGetHandleVerifier [0x00D01D4A+527226]\n\tOrdinal0 [0x00BE75F6+1013238]\n\tOrdinal0 [0x00BE746F+1012847]\n\tOrdinal0 [0x00BF365B+1062491]\n\tOrdinal0 [0x00BF379F+1062815]\n\tOrdinal0 [0x00BF2745+1058629]\n\tBaseThreadInitThunk [0x74D38494+36]\n\tRtlAreBitsSet [0x76FE41C8+136]\n\tRtlAreBitsSet [0x76FE4198+88]\n"
}