[
  {
    "element-6066-11e4-a52e-4f735466cecf": "7c55c8a0-6095-497a-ad69-577032c03bcb"
  },
  {
    "element-6066-11e4-a52e-4f735466cecf": "2dc762d4-8233-4558-aa1b-2b48b3ac3d58"
  },
  {
    "element-6066-11e4-a52e-4f735466cecf": "8a77e2f3-aaab-4b54-ada7-30264aedae66"
  },
  {
    "element-6066-11e4-a52e-4f735466cecf": "5e1ef0aa-0b99-463e-a612-d716cd2b9621"
  },
  {
    "element-6066-11e4-a52e-4f735466cecf": "a95e3d7d-7821-4936-919d-c47966407063"
  },
  {
    "element-6066-11e4-a52e-4f735466cecf": "255a826a-1c31-47b0-b4b6-ef632faf9896"
  },
  {
    "element-6066-11e4-a52e-4f735466cecf": "08ce2308-e0ef-441c-a19c-a15ad20b185c"
  },
  {
    "element-6066-11e4-a52e-4f735466cecf": "6771144c-5bfc-4ba3-8f05-aa2922731785"
  },
  {
    "element-6066-11e4-a52e-4f735466cecf": "929469cd-9c0d-4e9c-98f3-72a032cbdb5b"
  },
  {
    "element-6066-11e4-a52e-4f735466cecf": "c17d0dcd-7300-42a1-81ca-178df69ba8fb"
  },
  {
    "element-6066-11e4-a52e-4f735466cecf": "aa53bd4e-a003-41f4-948c-cb891b463e1c"
  },
  {
    "element-6066-11e4-a52e-4f735466cecf": "4dfce579-412b-4d3f-8685-4524dc0781ec"
  },
  {
    "element-6066-11e4-a52e-4f735466cecf": "82c153a1-cbe9-4b3d-8ed8-e0e22b2194bf"
  },
  {
    "element-6066-11e4-a52e-4f735466cecf": "dd169034-ded0-4e94-8d93-d24b22007b63"
  },
  {
    "element-6066-11e4-a52e-4f735466cecf": "d54ae44a-b0a2-4b20-b109-ff33ddde735a"
  },
  {
    "element-6066-11e4-a52e-4f735466cecf": "8629ce3c-ae0b-4621-8822-b28579467c67"
  },
  {
    "element-6066-11e4-a52e-4f735466cecf": "73a9f696-f303-450d-bf6e-28e92e2bb8a4"
  },
  {
    "element-6066-11e4-a52e-4f735466cecf": "6fcda4f3-a2ec-4845-80e2-4acacf269d1a"
  },
  {
    "element-6066-11e4-a52e-4f735466cecf": "098960c6-f45a-46f7-b042-074bbe1ee577"
  },
  {
    "element-6066-11e4-a52e-4f735466cecf": "6f06bd38-36e6-44d0-9fcb-e7f9dab062b5"
  },
  {
    "element-6066-11e4-a52e-4f735466cecf": "ac3acc90-212f-4c8e-8981-6f45ffad5f0f"
  },
  {
    "element-6066-11e4-a52e-4f735466cecf": "bc86ba00-9a98-442a-97eb-77b84fd511f3"
  },
  {
    "element-6066-11e4-a52e-4f735466cecf": "2e95cfa2-a191-49ad-85d8-bcd1abb04235"
  },
  {
    "element-6066-11e4-a52e-4f735466cecf": "e767124d-eefb-458d-8311-d3f0ebb3bb3d"
  },
  {
    "element-6066-11e4-a52e-4f735466cecf": "3317aed7-585d-4ecb-93a7-dfcb05662160"
  },
  {
    "element-6066-11e4-a52e-4f735466cecf": "5e968d04-a53e-4fe5-ab88-27d15058862d"
  },
  {
    "element-6066-11e4-a52e-4f735466cecf": "7ae2d541-c7f6-4554-b829-099548ac5c9f"
  },
  {
    "element-6066-11e4-a52e-4f735466cecf": "f08df458-63f6-4d47-804f-581be4c07aa8"
  },
  {
    "element-6066-11e4-a52e-4f735466cecf": "f9b6e79b-94a2-4310-b539-3239dcb1bc32"
  }
]