[
  {
    "element-6066-11e4-a52e-4f735466cecf": "0f54bc6e-9a19-4033-b497-0d05df4d2ea7"
  },
  {
    "element-6066-11e4-a52e-4f735466cecf": "4f69789d-96f4-4ea2-8fda-06b1ddc92899"
  },
  {
    "element-6066-11e4-a52e-4f735466cecf": "a9b6a03a-6941-4cf5-86bf-b0b80b47c614"
  },
  {
    "element-6066-11e4-a52e-4f735466cecf": "4a4f9036-61ac-494f-a5be-68858eb91043"
  },
  {
    "element-6066-11e4-a52e-4f735466cecf": "94a332a0-5b51-4e73-ae3a-6384ab700c66"
  },
  {
    "element-6066-11e4-a52e-4f735466cecf": "d66b8b50-438d-44ca-97ca-7c5e4ba533f1"
  },
  {
    "element-6066-11e4-a52e-4f735466cecf": "856ff761-dce6-4088-a641-222c52e16570"
  },
  {
    "element-6066-11e4-a52e-4f735466cecf": "0a48c36c-9339-4059-a685-31b454f9f82c"
  },
  {
    "element-6066-11e4-a52e-4f735466cecf": "3111c5cd-7d4a-4ed0-aadb-a88f609ba0c9"
  },
  {
    "element-6066-11e4-a52e-4f735466cecf": "01def0da-4792-4b59-9fa8-dea89d539df9"
  },
  {
    "element-6066-11e4-a52e-4f735466cecf": "39443235-f6ce-4ab9-b2d1-b0a4ee4c1d92"
  },
  {
    "element-6066-11e4-a52e-4f735466cecf": "b0a806c7-4138-4444-98ec-9e0c805966d7"
  },
  {
    "element-6066-11e4-a52e-4f735466cecf": "b42a9e75-159b-4c6a-a8ca-41d40c057d33"
  },
  {
    "element-6066-11e4-a52e-4f735466cecf": "806b11dd-01b2-4f73-a0b2-60f5283ae914"
  },
  {
    "element-6066-11e4-a52e-4f735466cecf": "2a3be271-f1e7-41e0-86a0-24db4a34e6b3"
  },
  {
    "element-6066-11e4-a52e-4f735466cecf": "5986ab9a-e52c-4652-9105-c6f9cb4d7e89"
  },
  {
    "element-6066-11e4-a52e-4f735466cecf": "7f415884-1e30-4edc-ad46-50100bebf8ef"
  },
  {
    "element-6066-11e4-a52e-4f735466cecf": "f4b36e2a-1a52-4236-bcd7-38345e597cee"
  },
  {
    "element-6066-11e4-a52e-4f735466cecf": "4920a881-36f2-479c-b5f2-d3f1f63b85dd"
  },
  {
    "element-6066-11e4-a52e-4f735466cecf": "c935439f-b885-4112-bc6e-c2b213e8dcfe"
  },
  {
    "element-6066-11e4-a52e-4f735466cecf": "61c7edf7-f72e-49f9-98d2-846e62f2b7ab"
  },
  {
    "element-6066-11e4-a52e-4f735466cecf": "3ff1db26-247d-4ff4-a462-c5e1205b2f9e"
  },
  {
    "element-6066-11e4-a52e-4f735466cecf": "eeac101d-fba5-4345-9660-925bf690fbba"
  },
  {
    "element-6066-11e4-a52e-4f735466cecf": "6ce88087-9306-43a6-b36b-fe57800cce0d"
  },
  {
    "element-6066-11e4-a52e-4f735466cecf": "676dbc7b-1c28-45c1-8082-ce49d99389e3"
  },
  {
    "element-6066-11e4-a52e-4f735466cecf": "86679e05-b5f4-4af9-8851-e4565b364b17"
  },
  {
    "element-6066-11e4-a52e-4f735466cecf": "2870690f-499b-4ee3-b573-07587efd649e"
  },
  {
    "element-6066-11e4-a52e-4f735466cecf": "a3b9332e-7c1f-409d-91d7-d0550c78408e"
  },
  {
    "element-6066-11e4-a52e-4f735466cecf": "2150d82b-fe0e-4ca2-9934-ec8c5344fb5e"
  },
  {
    "element-6066-11e4-a52e-4f735466cecf": "995c4ed0-5cce-4836-bfef-74d3b5603e93"
  }
]